…
Demonstration
=============

Joining Corpus and Meta Data
----------------------------

**dplyr** akes joining the corpus and meta data easy.

    pacman::p_load(tidyverse, sentimentr, formality, readability)
    pacman::p_load_current_gh('trinker/textcorpus')

    nixon_tapes

    ## $corpus
    ## # A tibble: 8,817 × 4
    ##               id       author
    ##            <chr>        <chr>
    ## 1  00 - connally        Nixon
    ## 2  00 - connally     Campbell
    ## 3  00 - connally        Nixon
    ## 4  00 - connally     Campbell
    ## 5  00 - connally        Nixon
    ## 6  00 - connally Unidentified
    ## 7  00 - connally Unidentified
    ## 8  00 - connally Unidentified
    ## 9  00 - connally Unidentified
    ## 10 00 - connally Unidentified
    ## # ... with 8,807 more rows, and 2 more variables: text <chr>, order <int>
    ## 
    ## $meta
    ## # A tibble: 31 × 4
    ##               id       date                             location minutes
    ##            <chr>     <date>                                <chr>   <dbl>
    ## 1  00 - connally 1971-03-23              White House Oval Office      30
    ## 2             01 1972-06-23              White House Oval Office       8
    ## 3             02 1972-06-23              White House Oval Office       4
    ## 4             03 1972-06-23 Old Executive Office Building Office       6
    ## 5             04 1972-09-15              White House Oval Office      34
    ## 6             05 1973-01-08 Old Executive Office Building Office       7
    ## 7             10 1973-03-17              White House Oval Office      21
    ## 8             11 1973-03-20              White House Oval Office      11
    ## 9             12 1973-03-21              White House Oval Office      83
    ## 10            13 1973-03-21 Old Executive Office Building Office      36
    ## # ... with 21 more rows

    dat <- nixon_tapes$corpus %>%
        dplyr::left_join(nixon_tapes$meta, by = 'id')

    dat

    ## # A tibble: 8,817 × 7
    ##               id       author
    ##            <chr>        <chr>
    ## 1  00 - connally        Nixon
    ## 2  00 - connally     Campbell
    ## 3  00 - connally        Nixon
    ## 4  00 - connally     Campbell
    ## 5  00 - connally        Nixon
    ## 6  00 - connally Unidentified
    ## 7  00 - connally Unidentified
    ## 8  00 - connally Unidentified
    ## 9  00 - connally Unidentified
    ## 10 00 - connally Unidentified
    ## # ... with 8,807 more rows, and 5 more variables: text <chr>, order <int>,
    ## #   date <date>, location <chr>, minutes <dbl>
…
